{"name":"Get list resource","id":"list-resource;get-list-resource","testSteps":[{"number":1,"description":"Given Get list resource","duration":9,"startTime":"2023-02-13T08:38:10.049+07:00[Asia/Bangkok]","result":"SUCCESS","precondition":false,"level":0,"children":[{"number":2,"description":"Get list resource","duration":1,"startTime":"2023-02-13T08:38:10.056+07:00[Asia/Bangkok]","result":"SUCCESS","precondition":false,"level":1}]},{"number":3,"description":"When Send request get list resource","duration":178,"startTime":"2023-02-13T08:38:10.058+07:00[Asia/Bangkok]","result":"SUCCESS","precondition":false,"level":0,"children":[{"number":4,"description":"GET https://reqres.in/api/unknown\r","duration":1,"startTime":"2023-02-13T08:38:10.233+07:00[Asia/Bangkok]","result":"SUCCESS","restQuery":{"method":"GET","path":"https://reqres.in/api/unknown\r","content":"\r","contentType":"null","requestHeaders":"Accept\u003d*/*\r","requestCookies":"\r","responseHeaders":"Date: Mon, 13 Feb 2023 01:38:08 GMT\r\nContent-Type: application/json; charset\u003dutf-8\r\nTransfer-Encoding: chunked\r\nConnection: keep-alive\r\nX-Powered-By: Express\r\nAccess-Control-Allow-Origin: *\r\nEtag: W/\"2c1-N6Rqerxquq2kgQhL51EiSg4x0R8\"\r\nVia: 1.1 vegur\r\nCache-Control: max-age\u003d14400\r\nCF-Cache-Status: HIT\r\nAge: 488\r\nReport-To: {\"endpoints\":[{\"url\":\"https:\\/\\/a.nel.cloudflare.com\\/report\\/v3?s\u003dJt86P%2FL470aNLTzSEpO8ISGE%2FVm8NV0iMg8Pg4CdLSVDz3oZ%2Fn9q5nOUjLe%2F3aa5IYpNvRT5x0NytYuFH6uMGAVGVX2tq0v9RjdH95rvAQbUXBEUpjckula1yQ%3D%3D\"}],\"group\":\"cf-nel\",\"max_age\":604800}\r\nNEL: {\"success_fraction\":0,\"report_to\":\"cf-nel\",\"max_age\":604800}\r\nVary: Accept-Encoding\r\nServer: cloudflare\r\nCF-RAY: 7989d7c3ecfd469d-SIN\r\nContent-Encoding: gzip\r","responseCookies":"\r","responseBody":"{\n    \"page\": 1,\n    \"per_page\": 6,\n    \"total\": 12,\n    \"total_pages\": 2,\n    \"data\": [\n        {\n            \"id\": 1,\n            \"name\": \"cerulean\",\n            \"year\": 2000,\n            \"color\": \"#98B2D1\",\n            \"pantone_value\": \"15-4020\"\n        },\n        {\n            \"id\": 2,\n            \"name\": \"fuchsia rose\",\n            \"year\": 2001,\n            \"color\": \"#C74375\",\n            \"pantone_value\": \"17-2031\"\n        },\n        {\n            \"id\": 3,\n            \"name\": \"true red\",\n            \"year\": 2002,\n            \"color\": \"#BF1932\",\n            \"pantone_value\": \"19-1664\"\n        },\n        {\n            \"id\": 4,\n            \"name\": \"aqua sky\",\n            \"year\": 2003,\n            \"color\": \"#7BC4C4\",\n            \"pantone_value\": \"14-4811\"\n        },\n        {\n            \"id\": 5,\n            \"name\": \"tigerlily\",\n            \"year\": 2004,\n            \"color\": \"#E2583E\",\n            \"pantone_value\": \"17-1456\"\n        },\n        {\n            \"id\": 6,\n            \"name\": \"blue turquoise\",\n            \"year\": 2005,\n            \"color\": \"#53B0AE\",\n            \"pantone_value\": \"15-5217\"\n        }\n    ],\n    \"support\": {\n        \"url\": \"https://reqres.in/#support-heading\",\n        \"text\": \"To keep ReqRes free, contributions towards server costs are appreciated!\"\n    }\n}","statusCode":200},"precondition":false,"level":1}]},{"number":5,"description":"Then Status code should be 200 OK","duration":4,"startTime":"2023-02-13T08:38:10.236+07:00[Asia/Bangkok]","result":"SUCCESS","precondition":false,"level":0},{"number":6,"description":"And Validate get list resource schema","duration":305,"startTime":"2023-02-13T08:38:10.240+07:00[Asia/Bangkok]","result":"SUCCESS","precondition":false,"level":0}],"userStory":{"id":"list-resource","storyName":"List Resource","path":"classpath:features/Reqres/ListResource.feature","narrative":"    This test case is everything about list resource","type":"feature"},"featureTag":{"name":"Reqres/List Resource","type":"feature","displayName":"Reqres/List Resource"},"title":"Get list resource","description":"","tags":[{"name":"Reqres","type":"capability","displayName":"Reqres"},{"name":"Reqres/List Resource","type":"feature","displayName":"List Resource"},{"name":"Tugas","type":"tag","displayName":"Tugas"}],"startTime":"2023-02-13T08:38:10.047+07:00[Asia/Bangkok]","duration":499,"projectKey":"","isManualTestingUpToDate":false,"manual":false,"testSource":"Cucumber","result":"SUCCESS"}