{"name":"Get list user with valid parameter page","id":"get-list-of-existing-user;get-list-user-with-valid-parameter-page","testSteps":[{"number":1,"description":"1: Get list user with valid parameter page ({page\u003d1})","duration":938,"startTime":"2023-02-13T08:38:10.571+07:00[Asia/Bangkok]","result":"SUCCESS","precondition":false,"level":0,"lineNumber":13,"children":[{"number":2,"description":"Given Get list user with valid parameter page 1","duration":7,"startTime":"2023-02-13T08:38:10.573+07:00[Asia/Bangkok]","result":"SUCCESS","precondition":false,"level":1,"children":[{"number":3,"description":"Get list valid user","duration":1,"startTime":"2023-02-13T08:38:10.578+07:00[Asia/Bangkok]","result":"SUCCESS","precondition":false,"level":2}]},{"number":4,"description":"When Send request get list users","duration":519,"startTime":"2023-02-13T08:38:10.582+07:00[Asia/Bangkok]","result":"SUCCESS","precondition":false,"level":1,"children":[{"number":5,"description":"GET https://reqres.in/api/users?page\u003d1\r","duration":0,"startTime":"2023-02-13T08:38:11.099+07:00[Asia/Bangkok]","result":"SUCCESS","restQuery":{"method":"GET","path":"https://reqres.in/api/users?page\u003d1\r","content":"\r","contentType":"null","requestHeaders":"Accept\u003d*/*\r","requestCookies":"\r","responseHeaders":"Date: Mon, 13 Feb 2023 01:38:09 GMT\r\nContent-Type: application/json; charset\u003dutf-8\r\nTransfer-Encoding: chunked\r\nConnection: keep-alive\r\nX-Powered-By: Express\r\nAccess-Control-Allow-Origin: *\r\nEtag: W/\"3e4-2RLXvr5wTg9YQ6aH95CkYoFNuO8\"\r\nVia: 1.1 vegur\r\nCache-Control: max-age\u003d14400\r\nCF-Cache-Status: REVALIDATED\r\nReport-To: {\"endpoints\":[{\"url\":\"https:\\/\\/a.nel.cloudflare.com\\/report\\/v3?s\u003dyYWAj4LM5C7O%2Ffws91JWNt%2FrI4F6KghFKelscwNbkR6Iq9ypuqAxbn7g3e72skzEpDoirfJXnOfwXuLGvgpenhGV%2FfE4TuhZWrInaZdB%2FLMVA5FDdfapg90sAQ%3D%3D\"}],\"group\":\"cf-nel\",\"max_age\":604800}\r\nNEL: {\"success_fraction\":0,\"report_to\":\"cf-nel\",\"max_age\":604800}\r\nVary: Accept-Encoding\r\nServer: cloudflare\r\nCF-RAY: 7989d7c75beca08f-SIN\r\nContent-Encoding: gzip\r","responseCookies":"\r","responseBody":"{\n    \"page\": 1,\n    \"per_page\": 6,\n    \"total\": 12,\n    \"total_pages\": 2,\n    \"data\": [\n        {\n            \"id\": 1,\n            \"email\": \"george.bluth@reqres.in\",\n            \"first_name\": \"George\",\n            \"last_name\": \"Bluth\",\n            \"avatar\": \"https://reqres.in/img/faces/1-image.jpg\"\n        },\n        {\n            \"id\": 2,\n            \"email\": \"janet.weaver@reqres.in\",\n            \"first_name\": \"Janet\",\n            \"last_name\": \"Weaver\",\n            \"avatar\": \"https://reqres.in/img/faces/2-image.jpg\"\n        },\n        {\n            \"id\": 3,\n            \"email\": \"emma.wong@reqres.in\",\n            \"first_name\": \"Emma\",\n            \"last_name\": \"Wong\",\n            \"avatar\": \"https://reqres.in/img/faces/3-image.jpg\"\n        },\n        {\n            \"id\": 4,\n            \"email\": \"eve.holt@reqres.in\",\n            \"first_name\": \"Eve\",\n            \"last_name\": \"Holt\",\n            \"avatar\": \"https://reqres.in/img/faces/4-image.jpg\"\n        },\n        {\n            \"id\": 5,\n            \"email\": \"charles.morris@reqres.in\",\n            \"first_name\": \"Charles\",\n            \"last_name\": \"Morris\",\n            \"avatar\": \"https://reqres.in/img/faces/5-image.jpg\"\n        },\n        {\n            \"id\": 6,\n            \"email\": \"tracey.ramos@reqres.in\",\n            \"first_name\": \"Tracey\",\n            \"last_name\": \"Ramos\",\n            \"avatar\": \"https://reqres.in/img/faces/6-image.jpg\"\n        }\n    ],\n    \"support\": {\n        \"url\": \"https://reqres.in/#support-heading\",\n        \"text\": \"To keep ReqRes free, contributions towards server costs are appreciated!\"\n    }\n}","statusCode":200},"precondition":false,"level":2}]},{"number":6,"description":"Then Status code should be 200 OK","duration":3,"startTime":"2023-02-13T08:38:11.102+07:00[Asia/Bangkok]","result":"SUCCESS","precondition":false,"level":1},{"number":7,"description":"And Response body page should be 1","duration":389,"startTime":"2023-02-13T08:38:11.105+07:00[Asia/Bangkok]","result":"SUCCESS","precondition":false,"level":1},{"number":8,"description":"And Validate get list user json schema","duration":13,"startTime":"2023-02-13T08:38:11.495+07:00[Asia/Bangkok]","result":"SUCCESS","precondition":false,"level":1}]},{"number":9,"description":"2: Get list user with valid parameter page ({page\u003d2})","duration":176,"startTime":"2023-02-13T08:38:11.513+07:00[Asia/Bangkok]","result":"SUCCESS","precondition":false,"level":0,"lineNumber":14,"children":[{"number":10,"description":"Given Get list user with valid parameter page 2","duration":4,"startTime":"2023-02-13T08:38:11.514+07:00[Asia/Bangkok]","result":"SUCCESS","precondition":false,"level":1,"children":[{"number":11,"description":"Get list valid user","duration":1,"startTime":"2023-02-13T08:38:11.516+07:00[Asia/Bangkok]","result":"SUCCESS","precondition":false,"level":2}]},{"number":12,"description":"When Send request get list users","duration":125,"startTime":"2023-02-13T08:38:11.518+07:00[Asia/Bangkok]","result":"SUCCESS","precondition":false,"level":1,"children":[{"number":13,"description":"GET https://reqres.in/api/users?page\u003d2\r","duration":0,"startTime":"2023-02-13T08:38:11.642+07:00[Asia/Bangkok]","result":"SUCCESS","restQuery":{"method":"GET","path":"https://reqres.in/api/users?page\u003d2\r","content":"\r","contentType":"null","requestHeaders":"Accept\u003d*/*\r","requestCookies":"\r","responseHeaders":"Date: Mon, 13 Feb 2023 01:38:10 GMT\r\nContent-Type: application/json; charset\u003dutf-8\r\nTransfer-Encoding: chunked\r\nConnection: keep-alive\r\nX-Powered-By: Express\r\nAccess-Control-Allow-Origin: *\r\nEtag: W/\"406-ut0vzoCuidvyMf8arZpMpJ6ZRDw\"\r\nVia: 1.1 vegur\r\nCache-Control: max-age\u003d14400\r\nCF-Cache-Status: HIT\r\nAge: 1743\r\nReport-To: {\"endpoints\":[{\"url\":\"https:\\/\\/a.nel.cloudflare.com\\/report\\/v3?s\u003dQwO%2Bih8Giz%2FIMpjNXpBpQoeyOxbheDOl05oYSbG%2FbrYrJFMRBvaRYC%2FfSGNBA5bhrsRyTJ7XG05t2CFBRAMsuJiPMF16SqybE7smqbIAEAloXTgrx6VwbzM16Q%3D%3D\"}],\"group\":\"cf-nel\",\"max_age\":604800}\r\nNEL: {\"success_fraction\":0,\"report_to\":\"cf-nel\",\"max_age\":604800}\r\nVary: Accept-Encoding\r\nServer: cloudflare\r\nCF-RAY: 7989d7cd1a1349de-SIN\r\nContent-Encoding: gzip\r","responseCookies":"\r","responseBody":"{\n    \"page\": 2,\n    \"per_page\": 6,\n    \"total\": 12,\n    \"total_pages\": 2,\n    \"data\": [\n        {\n            \"id\": 7,\n            \"email\": \"michael.lawson@reqres.in\",\n            \"first_name\": \"Michael\",\n            \"last_name\": \"Lawson\",\n            \"avatar\": \"https://reqres.in/img/faces/7-image.jpg\"\n        },\n        {\n            \"id\": 8,\n            \"email\": \"lindsay.ferguson@reqres.in\",\n            \"first_name\": \"Lindsay\",\n            \"last_name\": \"Ferguson\",\n            \"avatar\": \"https://reqres.in/img/faces/8-image.jpg\"\n        },\n        {\n            \"id\": 9,\n            \"email\": \"tobias.funke@reqres.in\",\n            \"first_name\": \"Tobias\",\n            \"last_name\": \"Funke\",\n            \"avatar\": \"https://reqres.in/img/faces/9-image.jpg\"\n        },\n        {\n            \"id\": 10,\n            \"email\": \"byron.fields@reqres.in\",\n            \"first_name\": \"Byron\",\n            \"last_name\": \"Fields\",\n            \"avatar\": \"https://reqres.in/img/faces/10-image.jpg\"\n        },\n        {\n            \"id\": 11,\n            \"email\": \"george.edwards@reqres.in\",\n            \"first_name\": \"George\",\n            \"last_name\": \"Edwards\",\n            \"avatar\": \"https://reqres.in/img/faces/11-image.jpg\"\n        },\n        {\n            \"id\": 12,\n            \"email\": \"rachel.howell@reqres.in\",\n            \"first_name\": \"Rachel\",\n            \"last_name\": \"Howell\",\n            \"avatar\": \"https://reqres.in/img/faces/12-image.jpg\"\n        }\n    ],\n    \"support\": {\n        \"url\": \"https://reqres.in/#support-heading\",\n        \"text\": \"To keep ReqRes free, contributions towards server costs are appreciated!\"\n    }\n}","statusCode":200},"precondition":false,"level":2}]},{"number":14,"description":"Then Status code should be 200 OK","duration":3,"startTime":"2023-02-13T08:38:11.643+07:00[Asia/Bangkok]","result":"SUCCESS","precondition":false,"level":1},{"number":15,"description":"And Response body page should be 2","duration":14,"startTime":"2023-02-13T08:38:11.647+07:00[Asia/Bangkok]","result":"SUCCESS","precondition":false,"level":1},{"number":16,"description":"And Validate get list user json schema","duration":11,"startTime":"2023-02-13T08:38:11.678+07:00[Asia/Bangkok]","result":"SUCCESS","precondition":false,"level":1}]}],"userStory":{"id":"get-list-of-existing-user","storyName":"Get list of existing user","path":"classpath:features/Reqres/ListUser.feature","narrative":"  This test case is everything about list user","type":"feature"},"featureTag":{"name":"Reqres/Get list of existing user","type":"feature","displayName":"Reqres/Get list of existing user"},"title":"Get list user with valid parameter page","description":"","tags":[{"name":"Reqres","type":"capability","displayName":"Reqres"},{"name":"Reqres/Get list of existing user","type":"feature","displayName":"Get list of existing user"},{"name":"Tugas","type":"tag","displayName":"Tugas"}],"startTime":"2023-02-13T08:38:10.557+07:00[Asia/Bangkok]","duration":1133,"projectKey":"","isManualTestingUpToDate":false,"dataTable":{"headers":["page"],"rows":[{"values":["1"],"lineNumber":13,"result":"SUCCESS"},{"values":["2"],"lineNumber":14,"result":"SUCCESS"}],"predefinedRows":true,"scenarioOutline":"Given Get list user with valid parameter page \u003cpage\u003e\n\rWhen Send request get list users\n\rThen Status code should be 200 OK\n\rAnd Response body page should be \u003cpage\u003e\n\rAnd Validate get list user json schema\n\r","dataSetDescriptors":[{"startRow":0,"rowCount":0,"name":"","description":""}]},"manual":false,"testSource":"Cucumber","result":"SUCCESS","scenarioOutline":"Given Get list user with valid parameter page \u003cpage\u003e\r\nWhen Send request get list users\r\nThen Status code should be 200 OK\r\nAnd Response body page should be \u003cpage\u003e\r\nAnd Validate get list user json schema"}