{"name":"Get list user with invalid parameter page","id":"get-list-of-existing-user;get-list-user-with-invalid-parameter-page","testSteps":[{"number":1,"description":"1: Get list user with invalid parameter page ({page\u003d1})","duration":154,"startTime":"2023-02-13T08:38:11.696+07:00[Asia/Bangkok]","exception":{"errorType":"java.lang.AssertionError","message":"1 expectation failed.\nExpected status code \u003c400\u003e but was \u003c200\u003e.\n","stackTrace":[{"declaringClass":"io.restassured.internal.ResponseSpecificationImpl","methodName":"validateResponseIfRequired","fileName":"ResponseSpecificationImpl.groovy","lineNumber":674},{"declaringClass":"io.restassured.internal.ResponseSpecificationImpl","methodName":"statusCode","fileName":"ResponseSpecificationImpl.groovy","lineNumber":126},{"declaringClass":"io.restassured.internal.ResponseSpecificationImpl","methodName":"statusCode","fileName":"ResponseSpecificationImpl.groovy","lineNumber":134},{"declaringClass":"io.restassured.internal.ValidatableResponseOptionsImpl","methodName":"statusCode","fileName":"ValidatableResponseOptionsImpl.java","lineNumber":89},{"declaringClass":"io.restassured.internal.ValidatableResponseImpl","methodName":"super$2$statusCode","fileName":"ValidatableResponseImpl.groovy","lineNumber":-1},{"declaringClass":"groovy.lang.MetaMethod","methodName":"doMethodInvoke","fileName":"MetaMethod.java","lineNumber":323},{"declaringClass":"groovy.lang.MetaClassImpl","methodName":"invokeMethod","fileName":"MetaClassImpl.java","lineNumber":1267},{"declaringClass":"io.restassured.internal.ValidatableResponseImpl","methodName":"statusCode","fileName":"ValidatableResponseImpl.groovy","lineNumber":142},{"declaringClass":"io.restassured.internal.ValidatableResponseImpl","methodName":"statusCode","fileName":"ValidatableResponseImpl.groovy","lineNumber":-1},{"declaringClass":"starter.StepDefinitions.Register","methodName":"statusCodeShouldBeBadRequest","fileName":"Register.java","lineNumber":57},{"declaringClass":"✽","methodName":"Status code should be 400 Bad Request","fileName":"classpath:features/Reqres/ListUser.feature","lineNumber":19}]},"result":"FAILURE","precondition":false,"level":0,"lineNumber":23,"children":[{"number":2,"description":"Given Get list user with valid parameter page \"1\"","duration":8,"startTime":"2023-02-13T08:38:11.697+07:00[Asia/Bangkok]","result":"SUCCESS","precondition":false,"level":1,"children":[{"number":3,"description":"Get list invalid user","duration":3,"startTime":"2023-02-13T08:38:11.701+07:00[Asia/Bangkok]","result":"SUCCESS","precondition":false,"level":2}]},{"number":4,"description":"When Send request get list users","duration":132,"startTime":"2023-02-13T08:38:11.707+07:00[Asia/Bangkok]","result":"SUCCESS","precondition":false,"level":1,"children":[{"number":5,"description":"GET https://reqres.in/api/users?page\u003d1\r","duration":0,"startTime":"2023-02-13T08:38:11.838+07:00[Asia/Bangkok]","result":"SUCCESS","restQuery":{"method":"GET","path":"https://reqres.in/api/users?page\u003d1\r","content":"\r","contentType":"null","requestHeaders":"Accept\u003d*/*\r","requestCookies":"\r","responseHeaders":"Date: Mon, 13 Feb 2023 01:38:10 GMT\r\nContent-Type: application/json; charset\u003dutf-8\r\nTransfer-Encoding: chunked\r\nConnection: keep-alive\r\nX-Powered-By: Express\r\nAccess-Control-Allow-Origin: *\r\nEtag: W/\"3e4-2RLXvr5wTg9YQ6aH95CkYoFNuO8\"\r\nVia: 1.1 vegur\r\nCache-Control: max-age\u003d14400\r\nCF-Cache-Status: HIT\r\nAge: 952\r\nReport-To: {\"endpoints\":[{\"url\":\"https:\\/\\/a.nel.cloudflare.com\\/report\\/v3?s\u003d5lSZyDTKszDv9C4hkaPqrrng2YG57e9C%2BxBKZ6eNqzFHETkcnmylO7XF%2FT2y7Id9eUR6z%2FvPLJEjVzIM5x0xSYEMMI3LdEEvaMw5lNGGDiokw0X1QMBGjgfjpA%3D%3D\"}],\"group\":\"cf-nel\",\"max_age\":604800}\r\nNEL: {\"success_fraction\":0,\"report_to\":\"cf-nel\",\"max_age\":604800}\r\nVary: Accept-Encoding\r\nServer: cloudflare\r\nCF-RAY: 7989d7ce48676bdc-SIN\r\nContent-Encoding: gzip\r","responseCookies":"\r","responseBody":"{\n    \"page\": 1,\n    \"per_page\": 6,\n    \"total\": 12,\n    \"total_pages\": 2,\n    \"data\": [\n        {\n            \"id\": 1,\n            \"email\": \"george.bluth@reqres.in\",\n            \"first_name\": \"George\",\n            \"last_name\": \"Bluth\",\n            \"avatar\": \"https://reqres.in/img/faces/1-image.jpg\"\n        },\n        {\n            \"id\": 2,\n            \"email\": \"janet.weaver@reqres.in\",\n            \"first_name\": \"Janet\",\n            \"last_name\": \"Weaver\",\n            \"avatar\": \"https://reqres.in/img/faces/2-image.jpg\"\n        },\n        {\n            \"id\": 3,\n            \"email\": \"emma.wong@reqres.in\",\n            \"first_name\": \"Emma\",\n            \"last_name\": \"Wong\",\n            \"avatar\": \"https://reqres.in/img/faces/3-image.jpg\"\n        },\n        {\n            \"id\": 4,\n            \"email\": \"eve.holt@reqres.in\",\n            \"first_name\": \"Eve\",\n            \"last_name\": \"Holt\",\n            \"avatar\": \"https://reqres.in/img/faces/4-image.jpg\"\n        },\n        {\n            \"id\": 5,\n            \"email\": \"charles.morris@reqres.in\",\n            \"first_name\": \"Charles\",\n            \"last_name\": \"Morris\",\n            \"avatar\": \"https://reqres.in/img/faces/5-image.jpg\"\n        },\n        {\n            \"id\": 6,\n            \"email\": \"tracey.ramos@reqres.in\",\n            \"first_name\": \"Tracey\",\n            \"last_name\": \"Ramos\",\n            \"avatar\": \"https://reqres.in/img/faces/6-image.jpg\"\n        }\n    ],\n    \"support\": {\n        \"url\": \"https://reqres.in/#support-heading\",\n        \"text\": \"To keep ReqRes free, contributions towards server costs are appreciated!\"\n    }\n}","statusCode":200},"precondition":false,"level":2}]},{"number":6,"description":"Then Status code should be 400 Bad Request","duration":5,"startTime":"2023-02-13T08:38:11.840+07:00[Asia/Bangkok]","exception":{"errorType":"java.lang.AssertionError","message":"1 expectation failed.\nExpected status code \u003c400\u003e but was \u003c200\u003e.\n","stackTrace":[{"declaringClass":"io.restassured.internal.ResponseSpecificationImpl","methodName":"validateResponseIfRequired","fileName":"ResponseSpecificationImpl.groovy","lineNumber":674},{"declaringClass":"io.restassured.internal.ResponseSpecificationImpl","methodName":"statusCode","fileName":"ResponseSpecificationImpl.groovy","lineNumber":126},{"declaringClass":"io.restassured.internal.ResponseSpecificationImpl","methodName":"statusCode","fileName":"ResponseSpecificationImpl.groovy","lineNumber":134},{"declaringClass":"io.restassured.internal.ValidatableResponseOptionsImpl","methodName":"statusCode","fileName":"ValidatableResponseOptionsImpl.java","lineNumber":89},{"declaringClass":"io.restassured.internal.ValidatableResponseImpl","methodName":"super$2$statusCode","fileName":"ValidatableResponseImpl.groovy","lineNumber":-1},{"declaringClass":"groovy.lang.MetaMethod","methodName":"doMethodInvoke","fileName":"MetaMethod.java","lineNumber":323},{"declaringClass":"groovy.lang.MetaClassImpl","methodName":"invokeMethod","fileName":"MetaClassImpl.java","lineNumber":1267},{"declaringClass":"io.restassured.internal.ValidatableResponseImpl","methodName":"statusCode","fileName":"ValidatableResponseImpl.groovy","lineNumber":142},{"declaringClass":"io.restassured.internal.ValidatableResponseImpl","methodName":"statusCode","fileName":"ValidatableResponseImpl.groovy","lineNumber":-1},{"declaringClass":"starter.StepDefinitions.Register","methodName":"statusCodeShouldBeBadRequest","fileName":"Register.java","lineNumber":57},{"declaringClass":"✽","methodName":"Status code should be 400 Bad Request","fileName":"classpath:features/Reqres/ListUser.feature","lineNumber":19}]},"result":"FAILURE","precondition":false,"level":1},{"number":7,"description":"And Response body page should be \"1\"","duration":2,"startTime":"2023-02-13T08:38:11.846+07:00[Asia/Bangkok]","result":"SKIPPED","precondition":false,"level":1}]},{"number":8,"description":"2: Get list user with invalid parameter page ({page\u003d2})","duration":134,"startTime":"2023-02-13T08:38:11.856+07:00[Asia/Bangkok]","exception":{"errorType":"java.lang.AssertionError","message":"1 expectation failed.\nExpected status code \u003c400\u003e but was \u003c200\u003e.\n","stackTrace":[{"declaringClass":"io.restassured.internal.ResponseSpecificationImpl","methodName":"validateResponseIfRequired","fileName":"ResponseSpecificationImpl.groovy","lineNumber":674},{"declaringClass":"io.restassured.internal.ResponseSpecificationImpl","methodName":"statusCode","fileName":"ResponseSpecificationImpl.groovy","lineNumber":126},{"declaringClass":"io.restassured.internal.ResponseSpecificationImpl","methodName":"statusCode","fileName":"ResponseSpecificationImpl.groovy","lineNumber":134},{"declaringClass":"io.restassured.internal.ValidatableResponseOptionsImpl","methodName":"statusCode","fileName":"ValidatableResponseOptionsImpl.java","lineNumber":89},{"declaringClass":"io.restassured.internal.ValidatableResponseImpl","methodName":"super$2$statusCode","fileName":"ValidatableResponseImpl.groovy","lineNumber":-1},{"declaringClass":"groovy.lang.MetaMethod","methodName":"doMethodInvoke","fileName":"MetaMethod.java","lineNumber":323},{"declaringClass":"groovy.lang.MetaClassImpl","methodName":"invokeMethod","fileName":"MetaClassImpl.java","lineNumber":1267},{"declaringClass":"io.restassured.internal.ValidatableResponseImpl","methodName":"statusCode","fileName":"ValidatableResponseImpl.groovy","lineNumber":142},{"declaringClass":"io.restassured.internal.ValidatableResponseImpl","methodName":"statusCode","fileName":"ValidatableResponseImpl.groovy","lineNumber":-1},{"declaringClass":"starter.StepDefinitions.Register","methodName":"statusCodeShouldBeBadRequest","fileName":"Register.java","lineNumber":57},{"declaringClass":"✽","methodName":"Status code should be 400 Bad Request","fileName":"classpath:features/Reqres/ListUser.feature","lineNumber":19}]},"result":"FAILURE","precondition":false,"level":0,"lineNumber":24,"children":[{"number":9,"description":"Given Get list user with valid parameter page \"2\"","duration":4,"startTime":"2023-02-13T08:38:11.856+07:00[Asia/Bangkok]","result":"SUCCESS","precondition":false,"level":1,"children":[{"number":10,"description":"Get list invalid user","duration":0,"startTime":"2023-02-13T08:38:11.859+07:00[Asia/Bangkok]","result":"SUCCESS","precondition":false,"level":2}]},{"number":11,"description":"When Send request get list users","duration":120,"startTime":"2023-02-13T08:38:11.861+07:00[Asia/Bangkok]","result":"SUCCESS","precondition":false,"level":1,"children":[{"number":12,"description":"GET https://reqres.in/api/users?page\u003d2\r","duration":0,"startTime":"2023-02-13T08:38:11.981+07:00[Asia/Bangkok]","result":"SUCCESS","restQuery":{"method":"GET","path":"https://reqres.in/api/users?page\u003d2\r","content":"\r","contentType":"null","requestHeaders":"Accept\u003d*/*\r","requestCookies":"\r","responseHeaders":"Date: Mon, 13 Feb 2023 01:38:10 GMT\r\nContent-Type: application/json; charset\u003dutf-8\r\nTransfer-Encoding: chunked\r\nConnection: keep-alive\r\nX-Powered-By: Express\r\nAccess-Control-Allow-Origin: *\r\nEtag: W/\"406-ut0vzoCuidvyMf8arZpMpJ6ZRDw\"\r\nVia: 1.1 vegur\r\nCache-Control: max-age\u003d14400\r\nCF-Cache-Status: HIT\r\nAge: 1743\r\nReport-To: {\"endpoints\":[{\"url\":\"https:\\/\\/a.nel.cloudflare.com\\/report\\/v3?s\u003dblf28VWW2MnLkLTE4jDRFCGczA3%2Fxqdffp4qanuI8Spkjn2hXibr%2BNewTc2aY%2FpvqNqN0MrFTyKXIn2eqjpmROFjo7MPHI2YucvgA%2F8QxeDqyEk1Xi9CrfOnxQ%3D%3D\"}],\"group\":\"cf-nel\",\"max_age\":604800}\r\nNEL: {\"success_fraction\":0,\"report_to\":\"cf-nel\",\"max_age\":604800}\r\nVary: Accept-Encoding\r\nServer: cloudflare\r\nCF-RAY: 7989d7cf3e669e22-SIN\r\nContent-Encoding: gzip\r","responseCookies":"\r","responseBody":"{\n    \"page\": 2,\n    \"per_page\": 6,\n    \"total\": 12,\n    \"total_pages\": 2,\n    \"data\": [\n        {\n            \"id\": 7,\n            \"email\": \"michael.lawson@reqres.in\",\n            \"first_name\": \"Michael\",\n            \"last_name\": \"Lawson\",\n            \"avatar\": \"https://reqres.in/img/faces/7-image.jpg\"\n        },\n        {\n            \"id\": 8,\n            \"email\": \"lindsay.ferguson@reqres.in\",\n            \"first_name\": \"Lindsay\",\n            \"last_name\": \"Ferguson\",\n            \"avatar\": \"https://reqres.in/img/faces/8-image.jpg\"\n        },\n        {\n            \"id\": 9,\n            \"email\": \"tobias.funke@reqres.in\",\n            \"first_name\": \"Tobias\",\n            \"last_name\": \"Funke\",\n            \"avatar\": \"https://reqres.in/img/faces/9-image.jpg\"\n        },\n        {\n            \"id\": 10,\n            \"email\": \"byron.fields@reqres.in\",\n            \"first_name\": \"Byron\",\n            \"last_name\": \"Fields\",\n            \"avatar\": \"https://reqres.in/img/faces/10-image.jpg\"\n        },\n        {\n            \"id\": 11,\n            \"email\": \"george.edwards@reqres.in\",\n            \"first_name\": \"George\",\n            \"last_name\": \"Edwards\",\n            \"avatar\": \"https://reqres.in/img/faces/11-image.jpg\"\n        },\n        {\n            \"id\": 12,\n            \"email\": \"rachel.howell@reqres.in\",\n            \"first_name\": \"Rachel\",\n            \"last_name\": \"Howell\",\n            \"avatar\": \"https://reqres.in/img/faces/12-image.jpg\"\n        }\n    ],\n    \"support\": {\n        \"url\": \"https://reqres.in/#support-heading\",\n        \"text\": \"To keep ReqRes free, contributions towards server costs are appreciated!\"\n    }\n}","statusCode":200},"precondition":false,"level":2}]},{"number":13,"description":"Then Status code should be 400 Bad Request","duration":5,"startTime":"2023-02-13T08:38:11.982+07:00[Asia/Bangkok]","exception":{"errorType":"java.lang.AssertionError","message":"1 expectation failed.\nExpected status code \u003c400\u003e but was \u003c200\u003e.\n","stackTrace":[{"declaringClass":"io.restassured.internal.ResponseSpecificationImpl","methodName":"validateResponseIfRequired","fileName":"ResponseSpecificationImpl.groovy","lineNumber":674},{"declaringClass":"io.restassured.internal.ResponseSpecificationImpl","methodName":"statusCode","fileName":"ResponseSpecificationImpl.groovy","lineNumber":126},{"declaringClass":"io.restassured.internal.ResponseSpecificationImpl","methodName":"statusCode","fileName":"ResponseSpecificationImpl.groovy","lineNumber":134},{"declaringClass":"io.restassured.internal.ValidatableResponseOptionsImpl","methodName":"statusCode","fileName":"ValidatableResponseOptionsImpl.java","lineNumber":89},{"declaringClass":"io.restassured.internal.ValidatableResponseImpl","methodName":"super$2$statusCode","fileName":"ValidatableResponseImpl.groovy","lineNumber":-1},{"declaringClass":"groovy.lang.MetaMethod","methodName":"doMethodInvoke","fileName":"MetaMethod.java","lineNumber":323},{"declaringClass":"groovy.lang.MetaClassImpl","methodName":"invokeMethod","fileName":"MetaClassImpl.java","lineNumber":1267},{"declaringClass":"io.restassured.internal.ValidatableResponseImpl","methodName":"statusCode","fileName":"ValidatableResponseImpl.groovy","lineNumber":142},{"declaringClass":"io.restassured.internal.ValidatableResponseImpl","methodName":"statusCode","fileName":"ValidatableResponseImpl.groovy","lineNumber":-1},{"declaringClass":"starter.StepDefinitions.Register","methodName":"statusCodeShouldBeBadRequest","fileName":"Register.java","lineNumber":57},{"declaringClass":"✽","methodName":"Status code should be 400 Bad Request","fileName":"classpath:features/Reqres/ListUser.feature","lineNumber":19}]},"result":"FAILURE","precondition":false,"level":1},{"number":14,"description":"And Response body page should be \"2\"","duration":1,"startTime":"2023-02-13T08:38:11.987+07:00[Asia/Bangkok]","result":"SKIPPED","precondition":false,"level":1}]}],"userStory":{"id":"get-list-of-existing-user","storyName":"Get list of existing user","path":"classpath:features/Reqres/ListUser.feature","narrative":"  This test case is everything about list user","type":"feature"},"featureTag":{"name":"Reqres/Get list of existing user","type":"feature","displayName":"Reqres/Get list of existing user"},"title":"Get list user with invalid parameter page","description":"","tags":[{"name":"Reqres","type":"capability","displayName":"Reqres"},{"name":"Reqres/Get list of existing user","type":"feature","displayName":"Get list of existing user"},{"name":"Tugas","type":"tag","displayName":"Tugas"}],"startTime":"2023-02-13T08:38:11.694+07:00[Asia/Bangkok]","duration":298,"testFailureCause":{"errorType":"java.lang.AssertionError","message":"1 expectation failed.\nExpected status code \u003c400\u003e but was \u003c200\u003e.\n","stackTrace":[{"declaringClass":"io.restassured.internal.ResponseSpecificationImpl","methodName":"validateResponseIfRequired","fileName":"ResponseSpecificationImpl.groovy","lineNumber":674},{"declaringClass":"io.restassured.internal.ResponseSpecificationImpl","methodName":"statusCode","fileName":"ResponseSpecificationImpl.groovy","lineNumber":126},{"declaringClass":"io.restassured.internal.ResponseSpecificationImpl","methodName":"statusCode","fileName":"ResponseSpecificationImpl.groovy","lineNumber":134},{"declaringClass":"io.restassured.internal.ValidatableResponseOptionsImpl","methodName":"statusCode","fileName":"ValidatableResponseOptionsImpl.java","lineNumber":89},{"declaringClass":"io.restassured.internal.ValidatableResponseImpl","methodName":"super$2$statusCode","fileName":"ValidatableResponseImpl.groovy","lineNumber":-1},{"declaringClass":"groovy.lang.MetaMethod","methodName":"doMethodInvoke","fileName":"MetaMethod.java","lineNumber":323},{"declaringClass":"groovy.lang.MetaClassImpl","methodName":"invokeMethod","fileName":"MetaClassImpl.java","lineNumber":1267},{"declaringClass":"io.restassured.internal.ValidatableResponseImpl","methodName":"statusCode","fileName":"ValidatableResponseImpl.groovy","lineNumber":142},{"declaringClass":"io.restassured.internal.ValidatableResponseImpl","methodName":"statusCode","fileName":"ValidatableResponseImpl.groovy","lineNumber":-1},{"declaringClass":"starter.StepDefinitions.Register","methodName":"statusCodeShouldBeBadRequest","fileName":"Register.java","lineNumber":57},{"declaringClass":"✽","methodName":"Status code should be 400 Bad Request","fileName":"classpath:features/Reqres/ListUser.feature","lineNumber":19}]},"testFailureClassname":"java.lang.AssertionError","testFailureMessage":"1 expectation failed.\nExpected status code \u003c400\u003e but was \u003c200\u003e.\n","testFailureSummary":"FAILURE;java.lang.AssertionError;1 expectation failed.\nExpected status code \u003c400\u003e but was \u003c200\u003e.\n;ResponseSpecificationImpl.groovy","projectKey":"","isManualTestingUpToDate":false,"dataTable":{"headers":["page"],"rows":[{"values":["1"],"lineNumber":23,"result":"FAILURE"},{"values":["2"],"lineNumber":24,"result":"FAILURE"}],"predefinedRows":true,"scenarioOutline":"Given Get list user with valid parameter page \"\u003cpage\u003e\"\n\rWhen Send request get list users\n\rThen Status code should be 400 Bad Request\n\rAnd Response body page should be \"\u003cpage\u003e\"\n\r","dataSetDescriptors":[{"startRow":0,"rowCount":0,"name":"","description":""}]},"manual":false,"testSource":"Cucumber","result":"FAILURE","scenarioOutline":"Given Get list user with valid parameter page \"\u003cpage\u003e\"\r\nWhen Send request get list users\r\nThen Status code should be 400 Bad Request\r\nAnd Response body page should be \"\u003cpage\u003e\""}